[gd_scene load_steps=4 format=3 uid="uid://beuabwwp0h2u7"]

[ext_resource type="Script" path="res://scripts/key_recipe.gd" id="1_p7ml7"]
[ext_resource type="PackedScene" uid="uid://bjcqj8usf4vqw" path="res://scenes/recipes/cold_beverages/juice/juice_instructions.tscn" id="2_1xyi7"]
[ext_resource type="PackedScene" uid="uid://dpnh8vbrxprwi" path="res://scenes/recipes/cold_beverages/juice/juice_inventory.tscn" id="3_ol8c5"]

[node name="juice" type="Node"]
script = ExtResource("1_p7ml7")
instructions = Array[String](["Left", "Left", "Left", "Left"])
instruction_ui = ExtResource("2_1xyi7")
inventory_ui = ExtResource("3_ol8c5")
recipe_type = 1
recipe_name = "Juice"
price = 4.0
