[gd_scene load_steps=4 format=3 uid="uid://cqnxrad0vjbsf"]

[ext_resource type="Script" path="res://scripts/key_recipe.gd" id="1_s5tn7"]
[ext_resource type="PackedScene" uid="uid://barjbl7ylqdjt" path="res://scenes/recipes/cold_beverages/icetea/icetea_instructions.tscn" id="2_aiyej"]
[ext_resource type="PackedScene" uid="uid://cdejx2tdhnbbu" path="res://scenes/recipes/cold_beverages/icetea/icetea_inventory.tscn" id="3_sx7m2"]

[node name="icetea" type="Node"]
script = ExtResource("1_s5tn7")
instructions = Array[String](["Right", "Right", "Right", "Right"])
instruction_ui = ExtResource("2_aiyej")
inventory_ui = ExtResource("3_sx7m2")
recipe_type = 1
recipe_name = "Ice Tea"
price = 4.5
