[gd_scene load_steps=4 format=3 uid="uid://bhxxcxkhyadoa"]

[ext_resource type="Script" path="res://scripts/key_recipe.gd" id="1_iy1ur"]
[ext_resource type="PackedScene" uid="uid://bc207ueqdjbrk" path="res://scenes/recipes/baked_goods/muffin/muffin_instructions.tscn" id="2_nseai"]
[ext_resource type="PackedScene" uid="uid://b3m11y57kgggr" path="res://scenes/recipes/baked_goods/muffin/muffin_inventory.tscn" id="3_imcxj"]

[node name="muffin" type="Node"]
script = ExtResource("1_iy1ur")
instructions = Array[String](["Right", "Down", "Left", "Up"])
instruction_ui = ExtResource("2_nseai")
inventory_ui = ExtResource("3_imcxj")
recipe_type = 2
recipe_name = "Muffin"
price = 4.0
