[gd_scene load_steps=4 format=3 uid="uid://behtxnn6bgavh"]

[ext_resource type="PackedScene" uid="uid://deqqe4nep3tmi" path="res://models/blender/SimplePlantsBackground.blend" id="1_ctl22"]
[ext_resource type="Material" uid="uid://dymtae5rig6sv" path="res://materials/simple/greenLight.tres" id="2_sxkx3"]
[ext_resource type="Material" uid="uid://cwmm2v3qy0mwe" path="res://materials/simple/greenDark.tres" id="3_ckxy5"]

[node name="SimplePlantsBackground" instance=ExtResource("1_ctl22")]

[node name="Circle010" parent="." index="0"]
surface_material_override/0 = ExtResource("2_sxkx3")
surface_material_override/1 = ExtResource("3_ckxy5")
