[gd_scene load_steps=5 format=3 uid="uid://nvwa700i5m4f"]

[ext_resource type="PackedScene" uid="uid://cpagbnodnigba" path="res://models/blender/SimpleMainCharacter.blend" id="1_3isfh"]
[ext_resource type="Material" uid="uid://pg78rsuiq4nt" path="res://materials/simple/whiteGlossy.tres" id="2_r3bev"]
[ext_resource type="Material" uid="uid://4l1finlvjldk" path="res://materials/simple/blackGlossy.tres" id="3_bqej8"]
[ext_resource type="Material" uid="uid://ubiqa4e7w8ad" path="res://materials/simple/blueGlossy.tres" id="4_idn42"]

[node name="MainCharacter" instance=ExtResource("1_3isfh")]

[node name="Sphere001" parent="." index="0"]
surface_material_override/0 = ExtResource("2_r3bev")
surface_material_override/1 = ExtResource("3_bqej8")
surface_material_override/2 = ExtResource("4_idn42")
