[gd_scene load_steps=4 format=3 uid="uid://iq1j8dpf0b2r"]

[ext_resource type="Script" path="res://scripts/key_recipe.gd" id="1_86w7o"]
[ext_resource type="PackedScene" uid="uid://1nwltdm8nc3p" path="res://scenes/recipes/baked_goods/pie/pie_instructions.tscn" id="2_y2n3w"]
[ext_resource type="PackedScene" uid="uid://cxfxypt10bdqj" path="res://scenes/recipes/baked_goods/pie/pie_inventory.tscn" id="3_jhc0m"]

[node name="pie" type="Node"]
script = ExtResource("1_86w7o")
instructions = Array[String](["Left", "Right", "Down", "Up"])
instruction_ui = ExtResource("2_y2n3w")
inventory_ui = ExtResource("3_jhc0m")
recipe_type = 2
recipe_name = "Pie"
price = 10.0
