[gd_resource type="Theme" load_steps=4 format=3 uid="uid://dbakqchmfotep"]

[ext_resource type="StyleBox" uid="uid://c3weshnkrdpy3" path="res://styling/flat_box_style_rounded_strong.tres" id="1_lgcxa"]
[ext_resource type="StyleBox" uid="uid://cdcbwvdhpmf0u" path="res://styling/flat_box_style_rounded_strong_dark.tres" id="2_atgp2"]
[ext_resource type="FontFile" uid="uid://cuhsc5re8ory3" path="res://styling/fonts/miamanueva.ttf" id="3_jyggf"]

[resource]
Button/font_sizes/font_size = 20
Button/styles/disabled = ExtResource("1_lgcxa")
Button/styles/focus = ExtResource("1_lgcxa")
Button/styles/hover = ExtResource("2_atgp2")
Button/styles/normal = ExtResource("1_lgcxa")
Button/styles/pressed = ExtResource("1_lgcxa")
Label/font_sizes/font_size = 20
Label/fonts/font = ExtResource("3_jyggf")
Panel/styles/panel = ExtResource("1_lgcxa")
RichTextLabel/font_sizes/bold_font_size = 25
RichTextLabel/font_sizes/bold_italics_font_size = 25
RichTextLabel/font_sizes/italics_font_size = 25
RichTextLabel/font_sizes/mono_font_size = 25
RichTextLabel/font_sizes/normal_font_size = 25
